{"content":[{"id":48,"name":"A Seleção 1ª Ed","description":"Muitas garotas sonham em ser princesas, mas este não é o caso de America Singer. Ela topa se inscrever na Seleção só para agradar a mãe, certa de que não será sorteada para participar da competição em que o príncipe escolherá sua futura esposa. Mas é claro que depois disso sua vida nunca mais será a mesma...\n\nPara trinta e cinco garotas, a Seleção é a chance de uma vida. É a oportunidade de ser alçada a um mundo de vestidos deslumbrantes e joias valiosas. De morar em um palácio, conquistar o coração do belo príncipe Maxon e um dia ser a rainha.\nAmerica Singer, no entanto, estar entre as Selecionadas é um pesadelo. Significa deixar para trás o rapaz que ama. Abandonar sua família e seu lar para entrar em uma disputa ferrenha por uma coroa que ela não quer. E viver em um palácio sob a ameaça constante de ataques rebeldes.\nEntão America conhece pessoalmente o príncipe - e percebe que a vida com que sempre sonhou talvez não seja nada comparada ao futuro que nunca tinha ousado imaginar.","price":200.0,"imgUrl":"https://images-americanas.b2w.io/produtos/imagens/112522145/112522153_1GG.jpg","date":null,"categories":[]},{"id":36,"name":"Celular Samsung S20","description":"asasdssa","price":7000.0,"imgUrl":"https://images-americanas.b2w.io/produtos/01/00/img/2024908/1/2024908161_1SZ.jpg","date":null,"categories":[]},{"id":42,"name":"Galaxy S20 FE Cloud Mint 128GB","description":"Smartphone Samsung Galaxy S20 FE, 128GB, 6GB RAM, Tela Infinita de 6.5\", Câmera Tripla Traseira 12MP+12MP (UW) + 8MP (T), Câmera Frontal 10MP com Autofoco, IP68, Dual Chip, Leitor de Digital na Tela, PowerShare, Android - Cloud Mint..","price":3500.0,"imgUrl":"https://samsungbr.vtexassets.com/arquivos/ids/313656-800-auto?width=800&height=auto&aspect=true","date":null,"categories":[]},{"id":49,"name":"iPad Tela 10,2” 8ª Geração Apple Wi-Fi 32GB","description":"O novo iPad é caderno digital, escritório portátil, estúdio fotográfico, videogame e sala de cinema. Com o chip A12 Bionic, você tem potência de sobra para os apps mais importantes e jogos envolventes. Edite um documento, faça uma busca na internet e uma chamada FaceTime com um amigo. Tudo ao mesmo tempo. Com o Apple Pencil, anotar, desenhar ou só rabiscar no iPad é fácil, rápido e parece mágica. Conecte um Smart Keyboard* para digitar com todo o conforto em um teclado completo. E vá ainda mais longe com Wi-Fi e bateria para o dia todo**.Avisos legais:*Acessórios vendidos separadamente. A compatibilidade varia de acordo com a geração. **A duração da bateria varia de acordo com o uso e a configuração. Consulte apple.com/br/batteries para obter mais informações.","price":3800.0,"imgUrl":"https://a-static.mlcdn.com.br/618x463/ipad-tela-102-8a-geracao-apple-wi-fi-32gb-cinza-espacial/magazineluiza/135308100/18f38920c8789a16034a03cfc30f9c41.jpg","date":null,"categories":[]},{"id":30,"name":"Laptop","description":"asdada","price":5000.0,"imgUrl":"https://img.olx.com.br/images/69/693010582754414.jpg","date":null,"categories":[]},{"id":41,"name":"LaptopA Sutil Arte De Ligar O Fda-se - 1ª Ed.","description":"Chega de tentar buscar um sucesso que só existe na sua cabeça. Chega de se torturar para pensar positivo enquanto sua vida vai ladeira abaixo.","price":20.0,"imgUrl":"https://images-americanas.b2w.io/produtos/imagens/132730056/132730064_1GG.jpg","date":null,"categories":[]},{"id":3,"name":"Macbook Pro","description":"Lorem ipsum dolor sit amet, consectetur adipiscing elit, sed do eiusmod tempor incididunt ut labore et dolore magna aliqua. Ut enim ad minim veniam, quis nostrud exercitation ullamco laboris nisi ut aliquip ex ea commodo consequat. Duis aute irure dolor in reprehenderit in voluptate velit esse cillum dolore eu fugiat nulla pariatur. Excepteur sint occaecat cupidatat non proident, sunt in culpa qui officia deserunt mollit anim id est laborum.","price":1250.0,"imgUrl":"https://raw.githubusercontent.com/devsuperior/dscatalog-resources/master/backend/img/3-big.jpg","date":"2020-07-14T10:00:00Z","categories":[]},{"id":4,"name":"PC Gamer","description":"Lorem ipsum dolor sit amet, consectetur adipiscing elit, sed do eiusmod tempor incididunt ut labore et dolore magna aliqua. Ut enim ad minim veniam, quis nostrud exercitation ullamco laboris nisi ut aliquip ex ea commodo consequat. Duis aute irure dolor in reprehenderit in voluptate velit esse cillum dolore eu fugiat nulla pariatur. Excepteur sint occaecat cupidatat non proident, sunt in culpa qui officia deserunt mollit anim id est laborum.","price":1200.0,"imgUrl":"https://raw.githubusercontent.com/devsuperior/dscatalog-resources/master/backend/img/4-big.jpg","date":"2020-07-14T10:00:00Z","categories":[]},{"id":24,"name":"PC Gamer Boo","description":"Lorem ipsum dolor sit amet, consectetur adipiscing elit, sed do eiusmod tempor incididunt ut labore et dolore magna aliqua. Ut enim ad minim veniam, quis nostrud exercitation ullamco laboris nisi ut aliquip ex ea commodo consequat. Duis aute irure dolor in reprehenderit in voluptate velit esse cillum dolore eu fugiat nulla pariatur. Excepteur sint occaecat cupidatat non proident, sunt in culpa qui officia deserunt mollit anim id est laborum.","price":2350.0,"imgUrl":"https://raw.githubusercontent.com/devsuperior/dscatalog-resources/master/backend/img/24-big.jpg","date":"2020-07-14T10:00:00Z","categories":[]},{"id":12,"name":"PC Gamer Card","description":"Lorem ipsum dolor sit amet, consectetur adipiscing elit, sed do eiusmod tempor incididunt ut labore et dolore magna aliqua. Ut enim ad minim veniam, quis nostrud exercitation ullamco laboris nisi ut aliquip ex ea commodo consequat. Duis aute irure dolor in reprehenderit in voluptate velit esse cillum dolore eu fugiat nulla pariatur. Excepteur sint occaecat cupidatat non proident, sunt in culpa qui officia deserunt mollit anim id est laborum.","price":1850.0,"imgUrl":"https://raw.githubusercontent.com/devsuperior/dscatalog-resources/master/backend/img/12-big.jpg","date":"2020-07-14T10:00:00Z","categories":[]},{"id":22,"name":"PC Gamer Er","description":"Lorem ipsum dolor sit amet, consectetur adipiscing elit, sed do eiusmod tempor incididunt ut labore et dolore magna aliqua. Ut enim ad minim veniam, quis nostrud exercitation ullamco laboris nisi ut aliquip ex ea commodo consequat. Duis aute irure dolor in reprehenderit in voluptate velit esse cillum dolore eu fugiat nulla pariatur. Excepteur sint occaecat cupidatat non proident, sunt in culpa qui officia deserunt mollit anim id est laborum.","price":1850.0,"imgUrl":"https://raw.githubusercontent.com/devsuperior/dscatalog-resources/master/backend/img/22-big.jpg","date":null,"categories":[]},{"id":19,"name":"PC Gamer Ez","description":"Lorem ipsum dolor sit amet, consectetur adipiscing elit, sed do eiusmod tempor incididunt ut labore et dolore magna aliqua. Ut enim ad minim veniam, quis nostrud exercitation ullamco laboris nisi ut aliquip ex ea commodo consequat. Duis aute irure dolor in reprehenderit in voluptate velit esse cillum dolore eu fugiat nulla pariatur. Excepteur sint occaecat cupidatat non proident, sunt in culpa qui officia deserunt mollit anim id est laborum.","price":1750.0,"imgUrl":"https://raw.githubusercontent.com/devsuperior/dscatalog-resources/master/backend/img/19-big.jpg","date":"2020-07-14T10:00:00Z","categories":[]}],"pageable":{"sort":{"sorted":true,"unsorted":false,"empty":false},"pageNumber":0,"pageSize":12,"offset":0,"paged":true,"unpaged":false},"totalPages":3,"totalElements":34,"last":false,"first":true,"sort":{"sorted":true,"unsorted":false,"empty":false},"number":0,"numberOfElements":12,"size":12,"empty":false}